{
    "/js/app.js": "/js/app.js?id=8e9669ce52d6ab3f9bf7",
    "/css/app.css": "/css/app.css?id=84909500b2e5c094bd48",
    "/views/home/index.min.js": "/views/home/index.min.js?id=8badd0e757e05e720a71"
}